"x"
0
0
0
0
0
0
0
0
0
0
0
0
0
0
0
0
0
0
0
0
0
0
0
0
0
0
0
0
0
0
0
0
0
0
0
0
0
0
0
0
0
0
0
0
0
0
0
0
0
0
0
0
0
0
0
0
0
0
0
0
0
0
0
0
0
0
0
0
0
0
0
0
0
0
0
0
0
0
0
0
0
0
0
0
0
0
0
0
0
0
0
0
0
0
0
0.00674234796491767
0.555361842549806
0.355396295707396
0.0750113078349195
0.00714321750285336
0.000336947014604726
7.95076903084134e-06
9.01917763602693e-08
4.63701117759613e-10
9.93737680250378e-13
8.07337006797455e-16
2.21683749820106e-19
1.75501738340256e-23
3.23108532232953e-28
1.02807431077080e-33
3.62768861246785e-40
6.84468556867994e-48
2.12250666470331e-57
1.22877269075039e-69
1.44807968531033e-86
1.62077365982271e-117
