"x"
0
0
0
0
0
0
0
0
0
0
0
0
0
0
0
0
0
0
0
0
0
0
0
0
0
0
0
0
0
0
0
0
0
0
0
0
0
0
0
0
0
0
0
0
0
0
0
0
0
0
0
0
0
0
0
0
0
0
0
0
0
0
0
0
0
0
0
0
0
0
0
0
0
0
0
0
0
0
0
0
0
0
0
0
0
0
0
0
0
0
0
0
0
0
0
0
0
0
0
0
0
0
0
0
0
0
0
0
0
0
0
0
0
0
0
0
0.0097995408054034
0.677838079419985
0.276465439862573
0.0340577851979837
0.00179433715325363
4.43064110231399e-05
5.086303809231e-07
2.51443957090626e-09
4.95466235471813e-12
3.46101734556051e-15
7.69564990017497e-19
4.81494258074307e-23
7.01110298381535e-28
1.8535331526657e-33
6.35061155170457e-40
1.67816839373206e-47
1.39762151350062e-56
9.2076905104835e-68
3.61349028481741e-82
4.17538668593624e-102
1.16588271995724e-138
