"x"
0
0
0
0
0
0
0
0
0
0
0
0
0
0
0
0
0
0
0
0
0
0
0
0
0
0
0
0
0
0
0
0
0
0
0
0
0
0
0
0
0
0
0
0
0
0
0
0
0
0
0
0
0
0
0
0
0
0
0
0
0
0
0
0
0
0
0
0
0
0
0
0
0
0
0
0
0
0
0
0
0
0
0
0
0
0
0
0
0
0
0
0
0
0
0
0
0
0
0
0
0
0
0
0
0
0
0
0
0
0
0
0
0
0
0
0
0
0
0.0100902837749098
0.687489898174077
0.269247022828543
0.0315615195322477
0.00157426884958169
3.66119431091621e-05
3.93097030317427e-07
1.7972648882132e-09
3.23468598251092e-12
2.03061242140265e-15
3.98940854978901e-19
2.16761667921587e-23
2.68499260316219e-28
5.89718643752974e-34
1.63363690021245e-40
3.37251619799415e-48
2.08480113080716e-57
9.51022524021087e-69
2.31713768599860e-83
1.38260535520048e-103
1.12987237143418e-140
