"x"
0
0
0
0
0
0
0
0
0
0
0
0
0
0
0
0
0
0
0
0
0
0
0
0
0
0
0
0
0
0
0
0
0
0
0
0
0
0
0
0
0
0
0
0
0
0
0
0
0
0
0
0
0
0
0
0
0
0
0
0
0
0
0
0
0
0
0
0
0
0
0
0
0
0
0
0
0
0
0
0
0
0
0
0
0
0
0
0
0
0
0
0
0
0
0
0
0
0
0
0
0
0
0
0
0
0
0
0
0
0
0
0
0
0
0
0
0
0
0
0
0
0
0.0106700496157720
0.705849328165836
0.255144473048244
0.0270985142473512
0.00121236850736306
2.50302312935098e-05
2.35262377230163e-07
9.20381335226104e-10
1.38233387272436e-12
7.00778287095071e-16
1.07462286901336e-19
4.40309167384415e-24
3.9460085438345e-29
5.98031036060267e-35
1.08287051614098e-41
1.36438334982898e-49
4.64486722366193e-59
1.01552642076235e-70
9.53282794543043e-86
1.51601714351126e-106
1.06115405061598e-144
