"x"
0
5.5163846678594e-11
1.39218525744003e-07
1.09301324039757e-05
0.000285296280093805
0.00344313662287045
0.0222249012959846
0.0831054291359169
0.188686750089622
0.267264158827792
0.239259681883748
0.135572907892679
0.0481727451455939
0.0105113642931089
0.00135995013658396
9.88303996019214e-05
3.71472639630356e-06
6.34657270231494e-08
3.97573661461555e-10
6.13993315468471e-13
9.7134873725931e-17
7.28417445742823e-23
