"x"
0
0
0
0
0
0
3.05045592933840e-08
2.37127202396837e-05
0.000642116951278255
0.00676926393011412
0.0367301788086551
0.115021668327726
0.220518746309508
0.267244098934095
0.207906248843808
0.104170940989990
0.0333730817056351
0.0067152276692539
0.000823547511952596
5.88078049542463e-05
2.28499263164373e-06
4.36448944313278e-08
3.49801174859789e-10
9.03329332399632e-13
4.60446329015032e-16
1.56732795579213e-20
6.62683036915507e-28
