"x"
0
0
0
0
0
0
0
0
0
0
0
0
0
0
0
0
0
0
0
0
0
0
0
0
0
0
0
0
0
0
0
0.000183682387046645
0.0383760793751955
0.170133832566102
0.301053795743304
0.279241122875422
0.150440730374686
0.0492596406486797
0.00996810737805568
0.00124442564891563
9.42737694034724e-05
4.2026376854451e-06
1.05204014209931e-07
1.38279073712456e-09
8.67600082918641e-12
2.26605853527836e-14
2.01195465663283e-17
4.43537974330236e-21
1.44170069496203e-25
2.65486230678935e-31
3.50093747309859e-39
4.424072770546e-53
