"x"
0
0
0
0
0
0
0
0
0
0
0
0
0
0
0
0
0
0
0
0
0
0
0
0
0
0
0
0
0
0
0
0
0
0
0
0
0.000351092581360173
0.0649870197698489
0.232440495931386
0.328602131834687
0.241356401263454
0.101974028644252
0.025886728725448
0.00400477863621217
0.000375700815435822
2.09408210562901e-05
6.6924222506646e-07
1.16322072269636e-08
1.02020639720061e-10
4.06242990509021e-13
6.31401792766283e-16
3.06462487437051e-19
3.28924627410779e-23
4.40577146170047e-28
2.57857859079426e-34
6.86588060954762e-43
4.08988541850277e-58
