"x"
0
0
0
0
0
0
0
0
0
0
0
0
0
0
0
0
0
0
0
0
0
0
0
0
0
0
0
0
0
0
0
0
0
0
0
0
0
0
0
0
0
0.000591635498032315
0.0985183673229033
0.289715424225175
0.333030196311720
0.196933066302123
0.0662745382848817
0.0132331149684952
0.00158576825107938
0.000113095424339992
4.68391790369044e-06
1.08172349563125e-07
1.31326067596155e-09
7.7156901043827e-12
1.95356009227474e-14
1.80688527334732e-17
4.78717756790587e-21
2.49467533595147e-25
1.37145680774854e-30
2.53651932611651e-37
1.35402297230343e-46
3.78117343111613e-63
