"x"
0
0
0
0
0
0
0
0
0
0
0
0
0
0
0
0
0
0
0
0
0
0
0
0
0
0
0
0
0
0
0
0
0
0
0
0
0
0
0
0
0
0
0
0
0
0
0
0.000980128131939093
0.145956790514383
0.34602601092282
0.315996583965298
0.146549130102006
0.0381484969222218
0.00579687546406903
0.000518267656693465
2.69156683346247e-05
7.88135633722732e-07
1.24177303182261e-08
9.85115948859658e-11
3.58874953630833e-13
5.28128093621264e-16
2.61758621303638e-19
3.34619727209075e-23
7.30268962215259e-28
1.37248458533148e-33
6.32843945314812e-41
4.87107934408424e-51
3.44143767381484e-69
