"x"
0
0
0
0
0
0
0
0
0
0
0
0
0
0
0
0
0
0
0
0
0
0
0
0
0
0
0
0
0
0
0
0
0
0
0
0
0
0
0
0
0
0
0
0
0
0
0
0
0
0
0
0
0
0
0
0
0.00175468604361599
0.226132964345605
0.400113374849849
0.266166888135907
0.0880766379304867
0.0160017755817464
0.00165313598834964
9.72839940397682e-05
3.1961979985493e-06
5.64243274071142e-08
5.05937761875515e-10
2.13253101721800e-12
3.80131816231785e-15
2.47640915882094e-18
4.79930580475621e-22
2.04707856990886e-26
1.20354661197579e-31
4.48433852286521e-38
2.54390257779561e-46
1.05725999045127e-57
2.98827492015602e-78
