"x"
0
0
0
0
0
0
0
0
0
0
0
0
0
0
0
0
0
0
0
0
0
0
0
0
0
0
0
0
0
0
0
0
0
0
0
0
0
0
0
0
0
0
0
0
0
0
0
0
0
0
0
0
0
0
0
0
0
0
0
0
0
0
0
0
0
0.00272221525002609
0.309819263566260
0.420683650043032
0.209120672497075
0.0505963670498589
0.00656742259996333
0.000471402291342039
1.86096616710778e-05
3.92791677553847e-07
4.22732692263761e-09
2.17179337854662e-11
4.87779976953255e-14
4.2529838520098e-17
1.22309170643063e-20
9.2305840971879e-25
1.30780153829233e-29
2.05905769593906e-35
1.50841575450067e-42
1.04054208157985e-51
2.30367443716625e-64
2.59480562872656e-87
