"x"
0
0
0
0
0
0
0
0
0
0
0
0
0
0
0
0
0
0
0
0
0
0
0
0
0
0
0
0
0
0
0
0
0
0
0
0
0
0
0
0
0
0
0
0
0
0
0
0
0
0
0
0
0
0
0
0
0
0
0
0
0
0
0
0
0
0
0.00283947825182752
0.319051645609030
0.421253763470564
0.202991381843601
0.047492174064250
0.0059454474305393
0.000410285554540486
1.55087169973355e-05
3.11864927539222e-07
3.17833773364115e-09
1.53526379685239e-11
3.21538683849956e-14
2.58911616355328e-17
6.79783023702275e-21
4.61878878673984e-25
5.78841571500677e-30
7.86989166417085e-36
4.80995503123693e-43
2.62382845304439e-52
4.19071896696505e-65
2.55441846591978e-88
