"x"
0
0
0
0
0
0
0
0
0
0
0
0
0
0
0
0
0
0
0
0
0
0
0
0
0
0
0
0
0
0
0
0
0
0
0
0
0
0
0
0
0
0
0
0
0
0
0
0
0
0
0
0
0
0
0
0
0
0
0
0
0
0
0
0
0
0
0
0
0
0.00320119865666428
0.34649628803374
0.421244471353903
0.185149408801094
0.039218545658522
0.00441018091091445
0.000270755396336919
8.99332101693038e-06
1.56507304410501e-07
1.35505393529746e-09
5.44142086966471e-12
9.2404578496633e-15
5.85989641239415e-18
1.17047180201457e-21
5.80186975500064e-26
5.03101522394375e-31
4.40309165080879e-37
1.56198737862831e-44
4.21061526717157e-54
2.52316186545791e-67
2.43698987979836e-91
